%YAML 1.1
%TAG !u! tag:unity3d.com,2011:
--- !u!114 &11400000
MonoBehaviour:
  m_ObjectHideFlags: 0
  m_CorrespondingSourceObject: {fileID: 0}
  m_PrefabInstance: {fileID: 0}
  m_PrefabAsset: {fileID: 0}
  m_GameObject: {fileID: 0}
  m_Enabled: 1
  m_EditorHideFlags: 0
  m_Script: {fileID: 11500000, guid: dd58778093a2ccc448d8561376b94305, type: 3}
  m_Name: 3B63DCE5-24FB-4DB3-A883-BA71CE527E14
  m_EditorClassIdentifier: 
  objectName: New_Event
  id: 3050945240
  guid: 3B63DCE5-24FB-4DB3-A883-BA71CE527E14
