%YAML 1.1
%TAG !u! tag:unity3d.com,2011:
--- !u!114 &11400000
MonoBehaviour:
  m_ObjectHideFlags: 0
  m_CorrespondingSourceObject: {fileID: 0}
  m_PrefabInstance: {fileID: 0}
  m_PrefabAsset: {fileID: 0}
  m_GameObject: {fileID: 0}
  m_Enabled: 1
  m_EditorHideFlags: 0
  m_Script: {fileID: 11500000, guid: dd58778093a2ccc448d8561376b94305, type: 3}
  m_Name: 82AB44C1-0E23-445A-93AE-E00634970352
  m_EditorClassIdentifier: 
  objectName: aquarium
  id: 456876952
  guid: 82AB44C1-0E23-445A-93AE-E00634970352
